[
  {"name":"Clara Smith","skill":"Django","sex":"F"},
  {"name":"John Harper","skill":"Python","sex":"M"},
  {"name":"Sagar Shah","skill":"Django","sex":"M"},
  {"name":"Bob Thomas","skill":"React","sex":"M"},
  {"name":"Sophie Laura","skill":"React","sex":"F"},
  {"name":"Sammie Lopez","skill":"Django","sex":"F"},
  {"name":"Connie Jones","skill":"Django","sex":"F"},
  {"name":"Camille Rowe","skill":"Django","sex":"F"},
  {"name":"Joana Silver","skill":"Python","sex":"F"},
  {"name":"Sasha Doe","skill":"Django","sex":"F"},
  {"name":"Gaby Simone","skill":"React","sex":"F"},
  {"name":"Chloe Isabella","skill":"React","sex":"F"},
  {"name":"George Stanley","skill":"Django","sex":"M"},
  {"name":"Dominic Hope","skill":"Django","sex":"M"},
  {"name":"Sandra Bonhomme","skill":"Django","sex":"F"},
  {"name":"Sophie Gerbault","skill":"React","sex":"F"},
  {"name":"Sarah Seemore","skill":"React","sex":"F"},
  {"name":"Rachel Green","skill":"Django","sex":"F"},
  {"name":"Josephine Taylor","skill":"Django","sex":"F"},
  {"name":"Jay Jiang","skill":"Django","sex":"M"},
  {"name":"Hunter Dickson","skill":"React","sex":"M"},
  {"name":"Sam Gupta","skill":"React","sex":"M"},
  {"name":"Tom Brady","skill":"Django","sex":"M"},
  {"name":"Taylor Thompson","skill":"Django","sex":"F"},
  {"name":"Tatianna Marshall","skill":"Django","sex":"F"},
  {"name":"Eric Street","skill":"Python","sex":"M"},
  {"name":"Marine Simon","skill":"Python","sex":"F"},
  {"name":"Ronald Duck","skill":"Python","sex":"M"},
  {"name":"Jennifer Lopez","skill":"Python","sex":"F"},
]
